Thesis report
…
Introduction

Methods

Results & Discussion

library(tidyverse)
library(here)

here() starts at /Users/lschoebitz/Documents/gitrepos/ethz/gh-org-global-health-engineering/SDG-6-2-Reproducibility

read_rds(here("data/2020-09-30_jmp_sanitation_raw_data.rds"))

# A tibble: 16,576 × 9
   source type    year var_short value iso3  var_long residence san_service_ch…¹
   <chr>  <chr>  <dbl> <chr>     <dbl> <chr> <chr>    <chr>     <fct>           
 1 MICS03 Survey  2003 s_imp_r    26   AFG   Improved rural     user interface  
 2 NRVA03 Survey  2003 s_imp_r    28.6 AFG   Improved rural     user interface  
 3 NRVS05 Survey  2005 s_imp_r    31.2 AFG   Improved rural     user interface  
 4 NRVA08 Survey  2008 s_imp_r    30.1 AFG   Improved rural     user interface  
 5 MICS11 Survey  2011 s_imp_r    44.2 AFG   Improved rural     user interface  
 6 NRVA12 Survey  2012 s_imp_r    36.3 AFG   Improved rural     user interface  
 7 ALCS14 Survey  2014 s_imp_r    27   AFG   Improved rural     user interface  
 8 DHS15  Survey  2015 s_imp_r    48.0 AFG   Improved rural     user interface  
 9 ALCS17 Survey  2017 s_imp_r    43.8 AFG   Improved rural     user interface  
10 MICS03 Survey  2003 s_imp_u    44.2 AFG   Improved urban     user interface  
# … with 16,566 more rows, and abbreviated variable name ¹​san_service_chain
# ℹ Use `print(n = ...)` to see more rows
…
